33
2
2
9 8 10 3 0 -1
14 8 5 3 0 2
haar_x2
3.254746e-02 0 1
2
8 0 12 18 0 -1
14 0 6 18 0 2
haar_x2
2.048626e-01 -1 -2
-1.661836e-01 5.087746e-01 -4.422927e-01 
2
2
1 12 3 1 0 -1
2 12 1 1 0 3
haar_x3
-5.650846e-03 0 1
2
9 10 3 3 0 -1
10 11 1 1 0 9
haar_point
1.973629e-02 -1 -2
6.307662e-01 -1.413623e-01 3.969070e-01 
2
2
0 2 1 2 0 -1
0 3 1 1 0 2
haar_y2
8.979458e-04 1 0
2
0 5 3 3 0 -1
1 5 1 3 0 3
haar_x3
1.387838e-03 -1 -2
-3.954926e-01 -7.698192e-02 3.243753e-01 
2
2
0 10 14 1 0 -1
7 10 7 1 0 2
haar_x2
-3.636029e-02 0 1
2
10 9 1 2 0 -1
10 10 1 1 0 2
haar_y2
6.876747e-05 -1 -2
-7.198791e-01 1.646348e-01 -2.474561e-01 
2
2
12 11 8 1 0 -1
14 13 4 1 0 2
tilted_haar_x4
2.424537e-02 1 0
2
12 11 3 1 0 -1
13 11 1 1 0 3
haar_x3
-3.656769e-03 -1 -2
5.650397e-01 3.202520e-01 -1.536865e-01 
2
3
14 7 2 2 0 -1
14 7 1 1 0 2
15 8 1 1 0 2
haar_x2_y2
-1.909117e-03 0 1
3
15 7 2 2 0 -1
15 7 1 1 0 2
16 8 1 1 0 2
haar_x2_y2
-3.717816e-03 -1 -2
3.696368e-01 5.725519e-01 -1.467447e-01 
2
2
0 0 1 3 0 -1
0 1 1 1 0 3
haar_y3
-9.323123e-04 0 1
3
1 12 18 6 0 -1
1 12 9 3 0 2
10 15 9 3 0 2
haar_x2_y2
-4.055322e-02 -1 -2
-2.822488e-01 5.119858e-01 3.397465e-03 
2
2
6 0 4 9 0 -1
6 3 4 3 0 3
haar_y3
7.808768e-02 1 0
3
0 4 2 10 0 -1
0 4 1 5 0 2
1 9 1 5 0 2
haar_x2_y2
6.471113e-03 -1 -2
5.725926e-01 -1.415165e-01 3.499506e-01 
2
2
0 17 6 2 0 -1
0 18 6 1 0 2
haar_y2
8.517134e-03 1 0
2
12 14 1 3 0 -1
12 15 1 1 0 3
haar_y3
3.271634e-03 -1 -2
-4.412346e-01 -7.708872e-03 5.015532e-01 
2
2
14 3 1 4 0 -1
14 4 1 2 0 2
haar_y4
6.826387e-03 1 0
2
3 0 4 8 0 -1
4 0 2 8 0 2
haar_x4
1.402894e-02 -1 -2
5.937623e-01 1.808782e-02 -5.368431e-01 
2
3
2 11 2 2 0 -1
2 11 1 1 0 2
3 12 1 1 0 2
haar_x2_y2
-3.786086e-03 0 1
3
17 5 2 4 0 -1
17 5 1 2 0 2
18 7 1 2 0 2
haar_x2_y2
4.313190e-03 -1 -2
5.154906e-01 -1.363103e-01 3.659801e-01 
2
2
15 16 2 2 0 -1
16 16 1 2 0 2
haar_x2
1.401268e-03 1 0
2
14 3 3 8 0 -1
15 3 1 8 0 3
haar_x3
4.046530e-03 -1 -2
-3.159882e-01 -4.927521e-02 3.883746e-01 
2
2
7 2 12 2 0 -1
7 3 12 1 0 2
haar_y2
-6.536133e-03 0 1
3
0 2 6 6 0 -1
0 2 3 3 0 2
3 5 3 3 0 2
haar_x2_y2
1.208778e-02 -1 -2
2.493746e-01 -2.139522e-01 3.463274e-01 
2
2
4 11 9 1 0 -1
7 11 3 1 0 3
haar_x3
8.635284e-03 0 1
2
3 9 12 4 0 -1
3 11 12 2 0 2
haar_y2
1.393578e-02 -1 -2
-1.068152e-01 -1.898496e-01 5.494497e-01 
2
2
8 10 1 3 0 -1
8 11 1 1 0 3
haar_y3
-3.948558e-03 0 1
2
14 10 3 8 0 -1
14 14 3 4 0 2
haar_y2
1.610398e-02 -1 -2
3.644362e-01 -1.985138e-01 2.490048e-01 
2
3
15 9 2 2 0 -1
15 9 1 1 0 2
16 10 1 1 0 2
haar_x2_y2
-3.253415e-03 0 1
2
10 9 1 3 0 -1
10 10 1 1 0 3
haar_y3
1.229340e-03 -1 -2
5.604071e-01 -1.666378e-01 2.755841e-01 
2
2
11 13 3 5 0 -1
12 13 1 5 0 3
haar_x3
2.608201e-03 1 0
3
0 1 2 18 0 -1
0 1 1 9 0 2
1 10 1 9 0 2
haar_x2_y2
-6.521186e-03 -1 -2
2.488554e-01 2.595060e-01 -2.391158e-01 
2
3
17 4 2 6 0 -1
17 4 1 3 0 2
18 7 1 3 0 2
haar_x2_y2
-6.129036e-03 0 1
3
2 10 2 2 0 -1
2 10 1 1 0 2
3 11 1 1 0 2
haar_x2_y2
-4.423869e-03 -1 -2
3.947425e-01 4.948945e-01 -1.341546e-01 
2
2
18 3 2 1 0 -1
19 3 1 1 0 2
haar_x2
-1.481902e-03 0 1
2
7 6 9 1 0 -1
10 6 3 1 0 3
haar_x3
1.630109e-02 -1 -2
-3.765389e-01 2.404982e-02 5.918212e-01 
2
2
8 6 8 4 0 -1
10 6 4 4 0 2
haar_x4
-2.941397e-02 0 1
2
6 9 1 2 0 -1
6 10 1 1 0 2
haar_y2
4.854110e-03 -1 -2
5.479816e-01 -1.171006e-01 5.930378e-01 
2
3
2 4 4 16 0 -1
2 4 2 8 0 2
4 12 2 8 0 2
haar_x2_y2
-2.620096e-02 0 1
2
1 12 16 8 0 -1
9 12 8 8 0 2
haar_x2
-9.082118e-02 -1 -2
4.477399e-01 5.170608e-01 -1.200919e-01 
2
2
4 6 12 8 0 -1
10 6 6 8 0 2
haar_x2
-9.860620e-02 0 1
2
12 4 8 3 0 -1
14 6 4 3 0 2
tilted_haar_x4
-2.456873e-02 -1 -2
-8.899521e-01 2.746163e-01 -8.943219e-02 
2
2
4 2 5 8 0 -1
4 6 5 4 0 2
haar_y2
3.393810e-02 1 0
2
5 6 3 2 0 -1
6 7 1 2 0 3
tilted_haar_x3
-1.061255e-02 -1 -2
3.712305e-01 2.825654e-01 -2.012972e-01 
2
2
10 0 8 7 0 -1
12 2 4 7 0 2
tilted_haar_x4
-1.347809e-01 0 1
2
13 3 1 6 0 -1
13 5 1 2 0 3
haar_y3
-4.513648e-03 -1 -2
6.945415e-01 2.230341e-01 -1.812028e-01 
2
3
15 10 2 2 0 -1
15 10 1 1 0 2
16 11 1 1 0 2
haar_x2_y2
-4.194116e-03 0 1
2
6 12 2 6 0 -1
4 14 2 2 0 3
tilted_haar_y3
-5.012820e-03 -1 -2
6.137486e-01 1.863429e-01 -1.810974e-01 
2
2
17 1 2 1 0 -1
18 1 1 1 0 2
haar_x2
1.163236e-03 1 0
2
11 7 4 2 0 -1
11 7 4 1 0 2
tilted_haar_y2
-3.801557e-04 -1 -2
-3.947965e-01 -1.510241e-01 2.441209e-01 
2
2
1 8 15 12 0 -1
1 11 15 6 0 2
haar_y4
5.930711e-02 1 0
2
6 1 4 6 0 -1
6 4 4 3 0 2
haar_y2
-6.481823e-03 -1 -2
2.239859e-01 1.544826e-01 -3.872731e-01 
2
2
7 1 2 6 0 -1
7 4 2 3 0 2
haar_y2
4.394514e-03 1 0
2
5 11 5 4 0 -1
5 11 5 2 0 2
tilted_haar_y2
-1.934201e-02 -1 -2
2.390685e-01 2.890777e-01 -2.890912e-01 
2
2
6 19 2 1 0 -1
7 19 1 1 0 2
haar_x2
-1.464100e-03 0 1
2
3 2 3 18 0 -1
3 8 3 6 0 3
haar_y3
-1.388836e-01 -1 -2
-4.152477e-01 -5.409876e-01 1.331361e-01 
2
3
3 10 2 4 0 -1
3 10 1 2 0 2
4 12 1 2 0 2
haar_x2_y2
-1.781083e-03 0 1
2
3 12 3 1 0 -1
4 12 1 1 0 3
haar_x3
1.133097e-03 -1 -2
2.392731e-01 -3.086079e-01 1.901095e-01 
2
2
5 2 12 2 0 -1
5 2 6 2 0 2
tilted_haar_x2
6.350720e-02 1 0
2
9 10 1 3 0 -1
9 11 1 1 0 3
haar_y3
2.829872e-03 -1 -2
4.392263e-01 -2.068987e-01 2.201945e-01 
2
2
8 6 2 8 0 -1
8 8 2 4 0 2
haar_y4
2.469547e-02 1 0
2
4 11 3 4 0 -1
4 13 3 2 0 2
haar_y2
-3.681144e-03 -1 -2
7.707676e-01 -3.221253e-01 7.387385e-02 
2
2
8 2 6 9 0 -1
10 2 2 9 0 3
haar_x3
3.114377e-03 1 0
3
4 1 2 12 0 -1
4 1 1 6 0 2
5 7 1 6 0 2
haar_x2_y2
7.306585e-03 -1 -2
1.821496e-01 -2.487034e-01 3.287384e-01 
-1.229552e+00

10
-1
