25
2
2
9 10 2 3 0 -1
9 11 2 1 0 3
haar_y3
5.928334e-03 1 0
2
11 2 8 5 0 -1
13 4 4 5 0 2
tilted_haar_x4
-1.053119e-01 -1 -2
5.062850e-01 5.984551e-01 -2.679203e-01 
2
2
4 8 12 12 0 -1
4 11 12 6 0 2
haar_y4
9.758845e-02 0 1
2
4 4 14 14 0 -1
4 11 14 7 0 2
haar_y2
3.709078e-01 -1 -2
-1.577872e-01 4.222190e-01 -9.357955e-01 
2
2
9 9 1 2 0 -1
9 10 1 1 0 2
haar_y2
-1.890629e-05 1 0
2
4 4 8 4 0 -1
6 6 4 4 0 2
tilted_haar_x4
-4.439219e-02 -1 -2
-2.531371e-01 4.970292e-01 2.800683e-02 
2
2
3 5 7 4 0 -1
3 7 7 2 0 2
haar_y2
2.952684e-02 1 0
2
4 7 3 2 0 -1
5 8 1 2 0 3
tilted_haar_x3
-1.532105e-02 -1 -2
4.344660e-01 3.865308e-01 -1.874191e-01 
2
2
2 10 3 1 0 -1
3 10 1 1 0 3
haar_x3
4.610825e-03 1 0
2
3 13 3 1 0 -1
4 13 1 1 0 3
haar_x3
-4.673379e-03 -1 -2
4.719407e-01 4.725878e-01 -1.451052e-01 
2
2
15 6 4 3 0 -1
15 6 2 3 0 2
tilted_haar_x2
-1.123183e-02 0 1
2
12 4 6 3 0 -1
14 6 2 3 0 3
tilted_haar_x3
7.173826e-02 -1 -2
2.517172e-01 -2.131455e-01 7.526993e-01 
2
3
2 8 2 4 0 -1
2 8 1 2 0 2
3 10 1 2 0 2
haar_x2_y2
-5.066648e-03 0 1
2
14 6 2 1 0 -1
14 6 1 1 0 2
tilted_haar_x2
5.422772e-03 -1 -2
4.366022e-01 -1.656813e-01 3.835002e-01 
2
2
11 16 6 3 0 -1
13 16 2 3 0 3
haar_x3
-2.267350e-02 0 1
2
18 19 2 1 0 -1
19 19 1 1 0 2
haar_x2
2.374127e-03 -1 -2
-6.720894e-01 1.265653e-01 -5.014763e-01 
2
3
12 6 2 2 0 -1
12 6 1 1 0 2
13 7 1 1 0 2
haar_x2_y2
2.870096e-03 1 0
3
14 9 2 2 0 -1
14 9 1 1 0 2
15 10 1 1 0 2
haar_x2_y2
2.663731e-03 -1 -2
4.763049e-01 -1.690460e-01 4.299367e-01 
2
2
3 7 12 6 0 -1
9 7 6 6 0 2
haar_x2
-6.500813e-02 0 1
2
3 10 5 4 0 -1
3 12 5 2 0 2
haar_y2
3.358316e-02 -1 -2
-5.824329e-01 1.323364e-01 -4.992319e-01 
2
2
5 9 9 8 0 -1
5 13 9 4 0 2
haar_y2
4.429435e-02 0 1
2
0 5 14 10 0 -1
7 5 7 10 0 2
haar_x2
7.799849e-02 -1 -2
-1.829382e-01 3.265656e-01 -5.628737e-01 
2
2
4 12 1 3 0 -1
4 13 1 1 0 3
haar_y3
2.640240e-03 1 0
2
6 8 6 7 0 -1
8 8 2 7 0 3
haar_x3
3.194159e-03 -1 -2
3.692260e-01 -3.080755e-01 1.051009e-01 
2
2
6 13 3 1 0 -1
7 13 1 1 0 3
haar_x3
4.297853e-03 1 0
2
19 15 1 2 0 -1
19 16 1 1 0 2
haar_y2
-1.029996e-03 -1 -2
5.677939e-01 -4.113569e-01 4.026320e-02 
2
2
8 8 4 4 0 -1
10 8 2 4 0 2
haar_x2
-1.898251e-02 0 1
2
18 11 2 6 0 -1
18 13 2 2 0 3
haar_y3
-1.943710e-02 -1 -2
-6.701220e-01 -5.141061e-01 1.193161e-01 
2
2
0 1 1 2 0 -1
0 2 1 1 0 2
haar_y2
4.839467e-04 1 0
2
0 1 1 2 0 -1
0 2 1 1 0 2
haar_y2
-1.577589e-04 -1 -2
-3.197218e-01 -1.139782e-01 3.308553e-01 
2
2
7 9 12 8 0 -1
13 9 6 8 0 2
haar_x2
1.405926e-01 1 0
2
19 0 1 4 0 -1
19 2 1 2 0 2
haar_y2
-8.329256e-03 -1 -2
-8.282462e-01 -6.460700e-01 9.573103e-02 
2
2
12 11 3 3 0 -1
13 11 1 3 0 3
haar_x3
4.706642e-03 1 0
2
11 11 3 3 0 -1
12 11 1 3 0 3
haar_x3
3.178911e-03 -1 -2
3.111491e-01 -3.056581e-01 2.240699e-01 
2
2
10 11 3 3 0 -1
11 11 1 3 0 3
haar_x3
2.114336e-03 1 0
3
18 10 2 4 0 -1
18 10 1 2 0 2
19 12 1 2 0 2
haar_x2_y2
-5.300126e-03 -1 -2
2.814374e-01 4.563380e-01 -2.196489e-01 
2
3
13 9 2 4 0 -1
13 9 1 2 0 2
14 11 1 2 0 2
haar_x2_y2
3.533644e-03 1 0
3
5 10 2 2 0 -1
5 10 1 1 0 2
6 11 1 1 0 2
haar_x2_y2
4.388105e-03 -1 -2
3.496723e-01 -1.662774e-01 6.232100e-01 
2
2
1 8 18 12 0 -1
10 8 9 12 0 2
haar_x2
-5.705231e-02 0 1
2
16 17 2 1 0 -1
17 17 1 1 0 2
haar_x2
4.962560e-04 -1 -2
-2.830250e-01 2.647463e-01 -2.272631e-01 
2
2
9 5 1 12 0 -1
9 9 1 4 0 3
haar_y3
-3.533261e-02 0 1
2
3 16 4 4 0 -1
5 16 2 4 0 2
haar_x2
2.306991e-02 -1 -2
-7.090481e-01 8.585393e-02 -7.860212e-01 
2
2
12 3 3 3 0 -1
13 4 1 3 0 3
tilted_haar_x3
1.940646e-02 1 0
2
9 6 4 14 0 -1
10 6 2 14 0 2
haar_x4
2.332856e-02 -1 -2
5.427644e-01 -1.594218e-02 -7.105618e-01 
2
2
3 11 3 1 0 -1
4 11 1 1 0 3
haar_x3
-3.195859e-03 0 1
2
3 5 4 3 0 -1
4 6 2 3 0 2
tilted_haar_x4
-1.317368e-02 -1 -2
3.543812e-01 2.945457e-01 -1.919852e-01 
2
3
0 7 2 6 0 -1
0 7 1 3 0 2
1 10 1 3 0 2
haar_x2_y2
-5.584944e-03 1 0
2
0 11 1 8 0 -1
0 15 1 4 0 2
haar_y2
1.495463e-02 -1 -2
-9.212603e-02 4.923144e-01 -7.719675e-01 
2
2
13 1 2 1 0 -1
14 1 1 1 0 2
haar_x2
7.260352e-04 0 1
2
5 1 5 9 0 -1
5 4 5 3 0 3
haar_y3
5.074530e-02 -1 -2
1.076770e-01 -5.074173e-01 3.788275e-01 
-1.259930e+00

4
-1
