13
2
2
7 7 5 6 0 -1
7 9 5 2 0 3
haar_y3
-2.443298e-02 0 1
2
8 9 4 4 0 -1
8 10 4 2 0 2
haar_y4
-3.577940e-03 -1 -2
6.762383e-01 1.010691e-01 -6.812764e-01 
2
2
9 9 1 3 0 -1
9 10 1 1 0 3
haar_y3
-3.914410e-03 0 1
2
5 4 6 4 0 -1
5 6 6 2 0 2
haar_y2
-2.068921e-02 -1 -2
5.454302e-01 3.928304e-01 -3.971035e-01 
2
2
0 5 20 10 0 -1
10 5 10 10 0 2
haar_x2
2.299816e-01 1 0
2
0 7 20 9 0 -1
10 7 10 9 0 2
haar_x2
-1.581937e-01 -1 -2
-9.040132e-01 -7.308224e-01 2.163271e-01 
2
2
15 6 4 4 0 -1
15 6 2 4 0 2
tilted_haar_x2
-1.526402e-02 0 1
2
9 10 2 2 0 -1
9 11 2 1 0 2
haar_y2
-4.605142e-03 -1 -2
2.603911e-01 4.968229e-01 -3.987226e-01 
2
2
9 5 2 3 0 -1
9 6 2 1 0 3
haar_y3
6.566223e-03 1 0
2
16 6 4 5 0 -1
17 7 2 5 0 2
tilted_haar_x4
-1.201515e-02 -1 -2
5.947481e-01 2.944881e-01 -3.002203e-01 
2
2
1 14 18 6 0 -1
1 17 18 3 0 2
haar_y2
-1.010535e-01 0 1
2
11 12 3 8 0 -1
11 16 3 4 0 2
haar_y2
1.062311e-02 -1 -2
6.065950e-01 -2.557234e-01 2.799524e-01 
2
3
0 7 4 4 0 -1
0 7 2 2 0 2
2 9 2 2 0 2
haar_x2_y2
-8.086704e-03 0 1
3
3 9 2 2 0 -1
3 9 1 1 0 2
4 10 1 1 0 2
haar_x2_y2
-4.911572e-03 -1 -2
4.611526e-01 8.597324e-01 -1.911124e-01 
2
2
0 0 2 1 0 -1
1 0 1 1 0 2
haar_x2
-9.791178e-04 0 1
2
0 0 2 1 0 -1
1 0 1 1 0 2
haar_x2
4.986208e-04 -1 -2
-4.523196e-01 3.516732e-01 -2.341239e-01 
2
2
4 10 3 2 0 -1
5 10 1 2 0 3
haar_x3
-6.076307e-03 0 1
3
3 8 2 2 0 -1
3 8 1 1 0 2
4 9 1 1 0 2
haar_x2_y2
-3.182483e-03 -1 -2
5.212883e-01 5.598702e-01 -2.318103e-01 
2
3
8 4 8 4 0 -1
8 4 4 2 0 2
12 6 4 2 0 2
haar_x2_y2
1.997263e-02 1 0
3
7 4 12 4 0 -1
7 4 6 2 0 2
13 6 6 2 0 2
haar_x2_y2
-2.711380e-02 -1 -2
5.616009e-01 4.117755e-01 -2.183263e-01 
2
2
3 12 3 1 0 -1
4 12 1 1 0 3
haar_x3
-3.771218e-03 0 1
3
8 5 12 2 0 -1
8 5 6 1 0 2
14 6 6 1 0 2
haar_x2_y2
1.310994e-02 -1 -2
5.059462e-01 -1.920754e-01 5.194311e-01 
2
2
14 0 2 1 0 -1
15 0 1 1 0 2
haar_x2
3.872607e-04 1 0
2
10 12 8 2 0 -1
14 12 4 2 0 2
haar_x2
-3.038910e-02 -1 -2
-3.212007e-01 -8.587965e-01 2.496665e-01 
2
2
16 4 3 8 0 -1
16 4 3 4 0 2
tilted_haar_y2
7.855430e-02 1 0
2
14 7 2 6 0 -1
12 9 2 2 0 3
tilted_haar_y3
-5.504742e-03 -1 -2
-7.944593e-01 2.923531e-01 -2.512384e-01 
-1.718999e+00

0
-1
